<svg xmlns="http://www.w3.org/2000/svg" width="977.084" height="590" viewBox="0 0 977.084 590">
  <g id="Group_4221" data-name="Group 4221" transform="translate(-42.622 -41.842)" opacity="0.32">
    <g id="Group_4188" data-name="Group 4188" transform="translate(58.23 41.841)">
      <g id="Group_4186" data-name="Group 4186">
        <path id="Path_4903" data-name="Path 4903" d="M50.041,45.6q7.251,7.251,14.5,14.5c2.005,2.005,5.113-1.1,3.107-3.1q-7.251-7.251-14.5-14.5c-2.005-2.008-5.113,1.1-3.107,3.1Z" transform="translate(-49.393 -41.841)" fill="#0051bd"/>
      </g>
      <g id="Group_4187" data-name="Group 4187" transform="translate(0 0.001)">
        <path id="Path_4904" data-name="Path 4904" d="M64.542,42.49q-7.251,7.247-14.5,14.5c-2.005,2,1.1,5.11,3.107,3.1q7.251-7.247,14.5-14.5c2.005-2-1.1-5.11-3.107-3.1Z" transform="translate(-49.393 -41.842)" fill="#0051bd"/>
      </g>
    </g>
    <g id="Group_4191" data-name="Group 4191" transform="translate(194.638 189.678)">
      <g id="Group_4189" data-name="Group 4189" transform="translate(0 0)">
        <path id="Path_4905" data-name="Path 4905" d="M109.219,109.731q7.247,7.251,14.5,14.5c2.005,2.005,5.113-1.1,3.107-3.107q-7.251-7.247-14.5-14.5c-2.005-2.005-5.113,1.1-3.1,3.107Z" transform="translate(-108.569 -105.976)" fill="#0051bd"/>
      </g>
      <g id="Group_4190" data-name="Group 4190" transform="translate(0 0)">
        <path id="Path_4906" data-name="Path 4906" d="M123.718,106.624l-14.5,14.5c-2.008,2.005,1.1,5.113,3.1,3.107q7.251-7.247,14.5-14.5c2.005-2.005-1.1-5.113-3.107-3.107Z" transform="translate(-108.569 -105.976)" fill="#0051bd"/>
      </g>
    </g>
    <g id="Group_4194" data-name="Group 4194" transform="translate(42.622 604.565)">
      <g id="Group_4192" data-name="Group 4192">
        <path id="Path_4907" data-name="Path 4907" d="M43.27,456.52q7.251,7.244,14.5,14.5c2.005,2.008,5.113-1.1,3.1-3.107q-7.247-7.247-14.5-14.5c-2.005-2-5.113,1.1-3.107,3.107Z" transform="translate(-42.622 -452.765)" fill="#0051bd"/>
      </g>
      <g id="Group_4193" data-name="Group 4193">
        <path id="Path_4908" data-name="Path 4908" d="M57.771,453.412l-14.5,14.5c-2.005,2,1.1,5.115,3.107,3.107q7.251-7.247,14.5-14.5c2.008-2.006-1.1-5.111-3.1-3.107Z" transform="translate(-42.622 -452.765)" fill="#0051bd"/>
      </g>
    </g>
    <g id="Group_4197" data-name="Group 4197" transform="translate(945.01 463.779)">
      <g id="Group_4195" data-name="Group 4195">
        <path id="Path_4909" data-name="Path 4909" d="M434.745,351.88l14.5,14.5c2.008,2.008,5.115-1.1,3.107-3.107q-7.247-7.244-14.5-14.5c-2.01-2.008-5.115,1.1-3.107,3.107Z" transform="translate(-434.095 -348.124)" fill="#0051bd"/>
      </g>
      <g id="Group_4196" data-name="Group 4196">
        <path id="Path_4910" data-name="Path 4910" d="M449.241,348.772q-7.254,7.247-14.5,14.5c-2.008,2.005,1.1,5.115,3.107,3.107q7.244-7.247,14.5-14.5c2.008-2-1.1-5.115-3.107-3.107Z" transform="translate(-434.095 -348.124)" fill="#0051bd"/>
      </g>
    </g>
    <g id="Group_4200" data-name="Group 4200" transform="translate(985.192 508.094)">
      <g id="Group_4198" data-name="Group 4198">
        <path id="Path_4911" data-name="Path 4911" d="M452.177,414.671q7.244,7.247,14.5,14.5c2.008,2.008,5.113-1.1,3.105-3.107l-14.5-14.5c-2.008-2.008-5.115,1.1-3.1,3.107Z" transform="translate(-451.527 -410.914)" fill="#0051bd"/>
      </g>
      <g id="Group_4199" data-name="Group 4199">
        <path id="Path_4912" data-name="Path 4912" d="M466.674,411.564l-14.5,14.5c-2.01,2.008,1.1,5.115,3.1,3.107q7.247-7.247,14.5-14.5c2.008-2.008-1.1-5.115-3.105-3.107Z" transform="translate(-451.527 -410.914)" fill="#0051bd"/>
      </g>
    </g>
    <g id="Group_4203" data-name="Group 4203" transform="translate(985.188 95.325)">
      <g id="Group_4201" data-name="Group 4201">
        <path id="Path_4913" data-name="Path 4913" d="M452.175,68.8l14.5,14.5c2.005,2.005,5.111-1.1,3.105-3.107q-7.247-7.247-14.5-14.5c-2.005-2.005-5.113,1.1-3.1,3.1Z" transform="translate(-451.525 -65.044)" fill="#0051bd"/>
      </g>
      <g id="Group_4202" data-name="Group 4202">
        <path id="Path_4914" data-name="Path 4914" d="M466.676,65.692q-7.254,7.244-14.5,14.5c-2.008,2.005,1.1,5.113,3.1,3.107l14.5-14.5c2.005-2-1.1-5.11-3.105-3.1Z" transform="translate(-451.525 -65.044)" fill="#0051bd"/>
      </g>
    </g>
    <g id="Group_4206" data-name="Group 4206" transform="translate(907.177 193.461)">
      <g id="Group_4204" data-name="Group 4204">
        <path id="Path_4915" data-name="Path 4915" d="M418.331,155.654l14.5,14.5c2.005,2.005,5.113-1.1,3.1-3.107q-7.247-7.251-14.5-14.5c-2.005-2.005-5.11,1.1-3.105,3.1Z" transform="translate(-417.683 -151.901)" fill="#0051bd"/>
      </g>
      <g id="Group_4205" data-name="Group 4205">
        <path id="Path_4916" data-name="Path 4916" d="M432.833,152.549q-7.254,7.244-14.5,14.5c-2.005,2.005,1.1,5.113,3.105,3.107l14.5-14.5c2.008-2-1.1-5.11-3.1-3.1Z" transform="translate(-417.683 -151.901)" fill="#0051bd"/>
      </g>
    </g>
    <g id="Group_4209" data-name="Group 4209" transform="translate(701.793 531.528)">
      <g id="Group_4207" data-name="Group 4207">
        <path id="Path_4917" data-name="Path 4917" d="M329.231,424.837l14.5,14.5c2,2.008,5.11-1.1,3.107-3.107q-7.254-7.244-14.5-14.5c-2.005-2.008-5.113,1.1-3.107,3.107Z" transform="translate(-328.583 -421.08)" fill="#0051bd"/>
      </g>
      <g id="Group_4208" data-name="Group 4208">
        <path id="Path_4918" data-name="Path 4918" d="M343.732,421.73q-7.251,7.247-14.5,14.5c-2.005,2.005,1.1,5.115,3.107,3.107q7.254-7.247,14.5-14.5c2-2.008-1.1-5.115-3.107-3.107Z" transform="translate(-328.583 -421.08)" fill="#0051bd"/>
      </g>
    </g>
    <g id="Group_4212" data-name="Group 4212" transform="translate(86.291 399.181)">
      <g id="Group_4210" data-name="Group 4210">
        <path id="Path_4919" data-name="Path 4919" d="M62.216,304.987q7.247,7.247,14.5,14.5c2,2.01,5.108-1.1,3.1-3.105q-7.251-7.247-14.5-14.5c-2.005-2.008-5.113,1.1-3.1,3.1Z" transform="translate(-61.566 -301.232)" fill="#0051bd"/>
      </g>
      <g id="Group_4211" data-name="Group 4211">
        <path id="Path_4920" data-name="Path 4920" d="M76.717,301.882q-7.254,7.244-14.5,14.5c-2.008,2,1.1,5.115,3.1,3.105q7.254-7.244,14.5-14.5c2-2.008-1.1-5.113-3.1-3.1Z" transform="translate(-61.566 -301.232)" fill="#0051bd"/>
      </g>
    </g>
    <g id="Group_4213" data-name="Group 4213" transform="translate(355.918 95.475)">
      <path id="Path_4921" data-name="Path 4921" d="M195.262,74.242c-.5,9.354-14.013,9.354-14.518,0-.221-4.105,3.474-7.056,7.259-7.259,4.105-.221,7.056,3.474,7.259,7.259.076,1.408,2.275,1.415,2.2,0-.657-12.178-18.256-12.178-18.913,0-.288,5.341,4.536,9.193,9.456,9.456,5.341.288,9.193-4.536,9.458-9.456C197.537,72.827,195.338,72.831,195.262,74.242Z" transform="translate(-178.536 -65.109)" fill="#0051bd"/>
    </g>
    <g id="Group_4214" data-name="Group 4214" transform="translate(95.731 495.982)">
      <path id="Path_4922" data-name="Path 4922" d="M82.388,380.569c-.5,9.349-14.013,9.349-14.518,0-.221-4.108,3.474-7.06,7.259-7.263,4.108-.221,7.056,3.476,7.259,7.263.076,1.408,2.273,1.413,2.2,0-.657-12.185-18.254-12.185-18.911,0-.288,5.339,4.536,9.188,9.456,9.453,5.341.288,9.19-4.539,9.456-9.453C84.661,379.149,82.464,379.158,82.388,380.569Z" transform="translate(-65.662 -371.431)" fill="#0051bd"/>
    </g>
    <g id="Group_4215" data-name="Group 4215" transform="translate(292.191 527.687)">
      <path id="Path_4923" data-name="Path 4923" d="M167.618,428.551c-.5,9.352-14.015,9.352-14.518,0-.224-4.11,3.471-7.06,7.259-7.261,4.108-.221,7.056,3.474,7.259,7.261.076,1.408,2.273,1.413,2.2,0-.657-12.182-18.256-12.182-18.913,0-.286,5.339,4.541,9.188,9.458,9.453,5.339.288,9.19-4.536,9.456-9.453C169.891,427.133,167.695,427.143,167.618,428.551Z" transform="translate(-150.89 -419.414)" fill="#0051bd"/>
    </g>
    <g id="Group_4216" data-name="Group 4216" transform="translate(609.065 41.991)">
      <path id="Path_4924" data-name="Path 4924" d="M305.082,51.043c-.5,9.352-14.013,9.352-14.518,0-.221-4.108,3.474-7.058,7.259-7.261,4.108-.221,7.054,3.476,7.259,7.261.074,1.408,2.275,1.415,2.2,0-.655-12.182-18.257-12.182-18.911,0-.288,5.341,4.539,9.188,9.456,9.453,5.341.288,9.193-4.536,9.456-9.453C307.357,49.625,305.156,49.632,305.082,51.043Z" transform="translate(-288.356 -41.906)" fill="#0051bd"/>
    </g>
    <g id="Group_4217" data-name="Group 4217" transform="translate(1000.781 264.709)">
      <path id="Path_4925" data-name="Path 4925" d="M475.016,212.721c-.5,9.354-14.013,9.354-14.518,0-.221-4.105,3.474-7.056,7.257-7.261,4.112-.221,7.056,3.478,7.261,7.261.074,1.411,2.273,1.418,2.2,0-.655-12.18-18.254-12.18-18.911,0-.288,5.341,4.539,9.19,9.453,9.456,5.343.288,9.2-4.536,9.458-9.456C477.289,211.306,475.09,211.313,475.016,212.721Z" transform="translate(-458.29 -203.586)" fill="#0051bd"/>
    </g>
    <g id="Group_4218" data-name="Group 4218" transform="translate(926.081 613.237)">
      <path id="Path_4926" data-name="Path 4926" d="M442.613,465.664c-.5,9.352-14.017,9.352-14.52,0-.221-4.105,3.476-7.058,7.257-7.261,4.11-.221,7.056,3.476,7.263,7.261.076,1.411,2.273,1.413,2.2,0-.657-12.182-18.261-12.182-18.913,0-.288,5.341,4.536,9.191,9.453,9.456,5.341.288,9.193-4.539,9.46-9.456C444.885,464.247,442.689,464.256,442.613,465.664Z" transform="translate(-425.884 -456.527)" fill="#0051bd"/>
    </g>
    <g id="Group_4219" data-name="Group 4219" transform="translate(50.964 183.127)">
      <path id="Path_4927" data-name="Path 4927" d="M62.967,153.513c-.5,9.352-14.013,9.352-14.518,0-.221-4.108,3.474-7.058,7.259-7.261,4.108-.221,7.056,3.476,7.259,7.261.076,1.408,2.273,1.415,2.2,0-.657-12.18-18.254-12.18-18.911,0-.286,5.341,4.536,9.19,9.456,9.453,5.341.286,9.19-4.534,9.456-9.453C65.24,152.1,63.043,152.1,62.967,153.513Z" transform="translate(-46.241 -144.378)" fill="#0051bd"/>
    </g>
    <g id="Group_4220" data-name="Group 4220" transform="translate(432.888 157.573)">
      <path id="Path_4928" data-name="Path 4928" d="M228.653,134.968c-.5,9.354-14.013,9.354-14.518,0-.219-4.105,3.474-7.056,7.259-7.261,4.108-.221,7.056,3.476,7.259,7.261.076,1.411,2.273,1.418,2.2,0-.655-12.18-18.256-12.18-18.911,0-.288,5.341,4.536,9.19,9.455,9.456,5.341.288,9.19-4.536,9.456-9.456C230.926,133.553,228.729,133.56,228.653,134.968Z" transform="translate(-211.927 -125.833)" fill="#0051bd"/>
    </g>
  </g>
</svg>
