<svg xmlns="http://www.w3.org/2000/svg" width="17.257" height="17.257" viewBox="0 0 17.257 17.257">
  <g id="Group_1214" data-name="Group 1214" transform="translate(1.414 1.414)">
    <line id="Line_2" data-name="Line 2" x2="14.428" y2="14.428" transform="translate(0 0)" fill="none" stroke="#b2defb" stroke-linecap="round" stroke-width="2"/>
    <line id="Line_3" data-name="Line 3" y1="14.428" x2="14.428" transform="translate(0 0)" fill="none" stroke="#b2defb" stroke-linecap="round" stroke-width="2"/>
  </g>
</svg>
