<svg id="dice_2_" data-name="dice (2)" xmlns="http://www.w3.org/2000/svg" width="29.875" height="29.876" viewBox="0 0 29.875 29.876">
  <path id="Path_3550" data-name="Path 3550" d="M97.376,348.578V371.3a3.578,3.578,0,0,1-3.578,3.578H71.078A3.578,3.578,0,0,1,67.5,371.3v-22.72A3.578,3.578,0,0,1,71.078,345H93.8A3.578,3.578,0,0,1,97.376,348.578Z" transform="translate(-67.5 -345)" fill="#77003f"/>
  <path id="Path_3552" data-name="Path 3552" d="M107.736,380.62a2.683,2.683,0,1,1-3.795,0A2.683,2.683,0,0,1,107.736,380.62Zm-10.951-7.335a2.683,2.683,0,1,0,3.795,0A2.683,2.683,0,0,0,96.785,373.285Zm18.107,3.795a2.683,2.683,0,1,0-3.795,0A2.683,2.683,0,0,0,114.892,377.08Zm-18.107,11.3a2.683,2.683,0,1,0,3.795,0A2.683,2.683,0,0,0,96.785,388.383Zm14.312,0a2.683,2.683,0,1,0,3.795,0A2.683,2.683,0,0,0,111.1,388.383Z" transform="translate(-90.901 -367.58)" fill="#b2defb"/>
</svg>
