<svg xmlns="http://www.w3.org/2000/svg" width="19.398" height="19.398" viewBox="0 0 19.398 19.398">
  <g id="Group_2588" data-name="Group 2588" transform="translate(0.25 0.25)">
    <g id="Group_2587" data-name="Group 2587" transform="translate(0 0)">
      <g id="casino">
        <path id="Path_4478" data-name="Path 4478" d="M9.449,0A9.449,9.449,0,1,0,18.9,9.449,9.46,9.46,0,0,0,9.449,0Zm-.76.736h1.466V2.2H8.689Zm7.359,8.713a6.6,6.6,0,1,1-6.6-6.6A6.606,6.606,0,0,1,16.048,9.449ZM3.806,2.77,4.842,3.806,3.806,4.842,2.77,3.806ZM2.174,10.182H.709V8.716H2.174Zm1.632,5.947L2.77,15.092l1.036-1.036,1.036,1.036Zm6.349,2.034H8.689V16.7h1.466Zm4.937-2.034-1.036-1.036,1.036-1.036,1.036,1.036Zm0-11.286L14.056,3.806,15.092,2.77l1.036,1.036Zm1.577,5.339V8.716h1.466v1.466Z" fill="#77003f" stroke="#77003f" stroke-width="0.5"/>
        <rect id="Rectangle_503" data-name="Rectangle 503" width="0.977" height="3.746" transform="translate(8.2 7.576)" fill="#ffc451"/>
        <rect id="Rectangle_504" data-name="Rectangle 504" width="0.977" height="3.746" transform="translate(11.295 7.576)" fill="#ffc451"/>
        <path id="Path_4479" data-name="Path 4479" d="M50,55.376A5.377,5.377,0,1,0,55.376,50,5.384,5.384,0,0,0,50,55.376Z" transform="translate(-45.927 -45.927)" fill="#0051bd" stroke="#00347b" stroke-width="1"/>
      </g>
    </g>
  </g>
</svg>
