<svg xmlns="http://www.w3.org/2000/svg" width="17.56" height="30.663" viewBox="0 0 17.56 30.663">
  <g id="ui" transform="translate(0)">
    <g id="Group_1187" data-name="Group 1187" transform="translate(0)">
      <g id="Group_1186" data-name="Group 1186">
        <path id="Path_3555" data-name="Path 3555" d="M126.956,30.663H109.4V24.632l.359-12.217L109.4,3.73V0h17.56V3.73l-.419,9.582.419,11.319Z" transform="translate(-109.396)" fill="#77003f"/>
        <path id="Path_3556" data-name="Path 3556" d="M264.78,0H256V30.663h8.78V24.691L264.3,14.271l.479-10.6Z" transform="translate(-247.22)" fill="#77003f"/>
        <rect id="Rectangle_327" data-name="Rectangle 327" width="17.56" height="20.843" transform="translate(0 3.753)" fill="#b2defb"/>
        <rect id="Rectangle_328" data-name="Rectangle 328" width="8.78" height="20.843" transform="translate(8.78 3.753)" fill="#b2defb"/>
        <path id="Path_3557" data-name="Path 3557" d="M241.886,447.8a.9.9,0,1,0-.9-.9.908.908,0,0,0,.9.9Z" transform="translate(-233.106 -419.29)" fill="#b2defb"/>
        <path id="Path_3558" data-name="Path 3558" d="M256,446v1.8a.9.9,0,1,0,0-1.8Z" transform="translate(-247.22 -419.29)" fill="#b2defb"/>
      </g>
    </g>
  </g>
</svg>
