<?xml version="1.0" encoding="utf-8"?>
<!-- Generator: Adobe Illustrator 22.0.1, SVG Export Plug-In . SVG Version: 6.00 Build 0)  -->
<svg version="1.1" id="Layer_1" xmlns="http://www.w3.org/2000/svg" xmlns:xlink="http://www.w3.org/1999/xlink" x="0px" y="0px"
	 viewBox="0 0 18 18" enable-background="new 0 0 18 18" xml:space="preserve">
<linearGradient id="SVGID_1_" gradientUnits="userSpaceOnUse" x1="9" y1="16.8487" x2="9" y2="1.1513">
	<stop  offset="0" style="stop-color:#6B368A"/>
	<stop  offset="1" style="stop-color:#EA1E79"/>
</linearGradient>
<path fill="url(#SVGID_1_)" d="M17.3,9l-1.8-2.1l0.3-2.8L13,3.5l-1.4-2.4L9,2.2L6.5,1.2L5,3.5L2.3,4.1l0.3,2.8L0.8,9l1.8,2.1
	l-0.3,2.8L5,14.5l1.4,2.4L9,15.7l2.5,1.1l1.4-2.4l2.7-0.6l-0.3-2.8L17.3,9z M9.8,12.7H8.3v-1.5h1.5V12.7z M9.8,9.7H8.3V5.2h1.5V9.7z
	"/>
</svg>
