<svg xmlns="http://www.w3.org/2000/svg" width="12.881" height="12.881" viewBox="0 0 12.881 12.881">
  <path id="ic_clear_24px" d="M17.174,6.226,15.948,5,11.087,9.861,6.226,5,5,6.226l4.861,4.861L5,15.948l1.226,1.226,4.861-4.861,4.861,4.861,1.226-1.226-4.861-4.861Z" transform="translate(-4.646 -4.646)" fill="#77003f" stroke="#77003f" stroke-width="0.5"/>
</svg>
