<svg xmlns="http://www.w3.org/2000/svg" width="20" height="20" viewBox="0 0 20 20">
  <path id="ic_forum_24px" d="M21,6H19v9H6v2a1,1,0,0,0,1,1H18l4,4V7A1,1,0,0,0,21,6Zm-4,6V3a1,1,0,0,0-1-1H3A1,1,0,0,0,2,3V17l4-4H16A1,1,0,0,0,17,12Z" transform="translate(-2 -2)" fill="#77003f"/>
</svg>
