<svg xmlns="http://www.w3.org/2000/svg" width="43.017" height="32.751" viewBox="0 0 43.017 32.751">
  <path id="ic_done_24px" d="M17.087,31.508,6.822,21.242,3.4,24.664,17.087,38.351,46.416,9.022,42.995,5.6Z" transform="translate(-3.4 -5.6)" fill="#77003f"/>
</svg>
