<svg xmlns="http://www.w3.org/2000/svg" width="32.989" height="32.989" viewBox="0 0 32.989 32.989">
  <g id="Group_2603" data-name="Group 2603" transform="translate(0.25 0.25)">
    <g id="Group_2587" data-name="Group 2587" transform="translate(0 0)">
      <g id="casino">
        <path id="Path_4478" data-name="Path 4478" d="M16.245,0A16.245,16.245,0,1,0,32.489,16.245,16.263,16.263,0,0,0,16.245,0ZM14.938,1.265h2.52v2.52h-2.52Zm12.652,14.98A11.345,11.345,0,1,1,16.245,4.9,11.358,11.358,0,0,1,27.589,16.245ZM6.543,4.761,8.325,6.543,6.543,8.325,4.761,6.543ZM3.738,17.5H1.218v-2.52h2.52ZM6.543,27.728,4.761,25.946l1.782-1.782,1.782,1.782Zm10.915,3.5h-2.52V28.7h2.52Zm8.488-3.5-1.782-1.782,1.782-1.782,1.782,1.782Zm0-19.4L24.164,6.543l1.782-1.782,1.782,1.782ZM28.658,17.5v-2.52h2.52V17.5Z" fill="#77003f" stroke="#77003f" stroke-width="0.5"/>
        <rect id="Rectangle_503" data-name="Rectangle 503" width="1.68" height="6.44" transform="translate(14.098 13.025)" fill="#ffc451"/>
        <rect id="Rectangle_504" data-name="Rectangle 504" width="1.68" height="6.44" transform="translate(19.418 13.025)" fill="#ffc451"/>
        <path id="Path_4479" data-name="Path 4479" d="M50,59.243A9.245,9.245,0,1,0,59.244,50,9.255,9.255,0,0,0,50,59.243Z" transform="translate(-42.999 -42.998)" fill="#0051bd" stroke="#00347b" stroke-width="1"/>
      </g>
    </g>
    <text id="_" data-name="$" transform="translate(14.178 22)" fill="#ffc451" font-size="16" font-family="RamaGothicM-Bold, Rama Gothic M" font-weight="700"><tspan x="0" y="0">$</tspan></text>
  </g>
</svg>
