<svg xmlns="http://www.w3.org/2000/svg" width="31.583" height="32.673" viewBox="0 0 31.583 32.673">
  <g id="Group_2590" data-name="Group 2590" transform="translate(0 0)">
    <path id="Path_1423" data-name="Path 1423" d="M167.755,87.693v17.425a7.623,7.623,0,0,0,0,15.247h-23.96V87.693Zm-8.713,16.336-3.267-4.356-3.267,4.356,3.267,4.356Z" transform="translate(-143.795 -87.693)" fill="#77003f"/>
    <rect id="Rectangle_116" data-name="Rectangle 116" width="11.968" height="32.673" transform="translate(0.001)" fill="#77003f"/>
    <path id="Path_1424" data-name="Path 1424" d="M271.638,215.926a7.623,7.623,0,1,1-7.623,7.624A7.618,7.618,0,0,1,271.638,215.926Z" transform="translate(-247.679 -198.501)" fill="#ffc451"/>
    <path id="Path_1422" data-name="Path 1422" d="M211.179,175.853l3.267,4.356-3.267,4.356-3.267-4.356Z" transform="translate(-199.199 -163.873)" fill="#b2defb"/>
    <path id="Path_1425" data-name="Path 1425" d="M269.461,223.549a7.613,7.613,0,0,1,4.9-7.115,7.623,7.623,0,1,0,0,14.23A7.612,7.612,0,0,1,269.461,223.549Z" transform="translate(-247.68 -198.5)" fill="#ffe451"/>
    <path id="Path_1433" data-name="Path 1433" d="M172.6,112.205h-4.293V116.5h2.051v-2.242H172.6Z" transform="translate(-164.976 -108.874)" fill="#b2defb"/>
    <g id="Group_82" data-name="Group 82" transform="translate(3.267 3.332)">
      <rect id="Rectangle_120" data-name="Rectangle 120" width="2.178" height="2.051" transform="translate(15.247)" fill="#b2defb"/>
      <rect id="Rectangle_121" data-name="Rectangle 121" width="2.178" height="2.051" transform="translate(0 23.959)" fill="#b2defb"/>
    </g>
    <g id="Group_83" data-name="Group 83" transform="translate(19.667 20.757)">
      <path id="Path_1434" data-name="Path 1434" d="M288.528,244.733h2.051a2.244,2.244,0,0,1,2.242-2.242v-2.051A4.3,4.3,0,0,0,288.528,244.733Z" transform="translate(-288.528 -240.441)" fill="#fff"/>
    </g>
    <path id="Path_1449" data-name="Path 1449" d="M-706.79,2186.853l-3.249,4.388,3.249,4.336Z" transform="translate(718.759 -2174.873)" fill="#b2defb"/>
  </g>
</svg>
